<?xml version="1.0" encoding="UTF-8" standalone="no"?>
<!-- Generator: Adobe Illustrator 14.0.0, SVG Export Plug-In . SVG Version: 6.00 Build 43363)  -->

<svg
   xmlns:dc="http://purl.org/dc/elements/1.1/"
   xmlns:cc="http://creativecommons.org/ns#"
   xmlns:rdf="http://www.w3.org/1999/02/22-rdf-syntax-ns#"
   xmlns:svg="http://www.w3.org/2000/svg"
   xmlns="http://www.w3.org/2000/svg"
   xmlns:sodipodi="http://sodipodi.sourceforge.net/DTD/sodipodi-0.dtd"
   xmlns:inkscape="http://www.inkscape.org/namespaces/inkscape"
   version="1.1"
   x="0px"
   y="0px"
   width="16"
   height="16"
   viewBox="0 0 16 16"
   enable-background="new 0 0 160 160"
   xml:space="preserve"
   id="svg10"
   sodipodi:docname="bus.svg"
   inkscape:version="0.92.3 (2405546, 2018-03-11)"><metadata
   id="metadata16"><rdf:RDF><cc:Work
       rdf:about=""><dc:format>image/svg+xml</dc:format><dc:type
         rdf:resource="http://purl.org/dc/dcmitype/StillImage" /><dc:title></dc:title></cc:Work></rdf:RDF></metadata><defs
   id="defs14" /><sodipodi:namedview
   pagecolor="#ffffff"
   bordercolor="#666666"
   borderopacity="1"
   objecttolerance="10"
   gridtolerance="10"
   guidetolerance="10"
   inkscape:pageopacity="0"
   inkscape:pageshadow="2"
   inkscape:window-width="1920"
   inkscape:window-height="1025"
   id="namedview12"
   showgrid="false"
   fit-margin-top="0"
   fit-margin-left="0"
   fit-margin-right="0"
   fit-margin-bottom="0"
   inkscape:zoom="1.475"
   inkscape:cx="80"
   inkscape:cy="80"
   inkscape:window-x="0"
   inkscape:window-y="27"
   inkscape:window-maximized="1"
   inkscape:current-layer="svg10" />
<g
   id="Temps_d_x27_attente"
   transform="scale(0.1)"
   style="fill:#ffffff">
</g>
<g
   id="Calque_5"
   transform="scale(0.1)"
   style="fill:#ffffff">
</g>
<g
   id="Ardoise"
   transform="scale(0.1)"
   style="fill:#ffffff">
</g>
<g
   id="Logos"
   transform="scale(0.1)"
   style="fill:#ffffff">
	<g
   id="g7"
   style="fill:#ffffff">
		<path
   d="M 160,80.402 C 160,36.002 122.797,0 80.195,0 36,0 0,36.002 0,80.402 0,124.199 36,160 80.195,160 124.401,160 160,124.6 160,80.402 Z m -11.001,0 C 148.999,117.998 118,149 80.195,149 42.199,149 11,118.201 11,80.402 11,42.201 42.199,10.798 80.195,10.798 118,10.799 148.999,42.4 148.999,80.402 Z m -11.202,10.6 C 137.797,82.799 133.195,78 127.4,74.799 L 123,72.403 c -2.599,-1.402 -4.806,-3.604 -4.806,-6.4 0,-3.203 2.606,-5.402 6.405,-5.402 2.601,0 4.999,1 6.799,1.803 2.795,1.396 4.602,-0.4 5.403,-3.404 0.996,-3.398 -0.404,-4.596 -2.803,-5.797 -2.401,-1.199 -5.803,-2 -9.198,-2 -9.401,0 -17.203,6.199 -17.203,16.201 0,7.797 4,12.199 10.402,15.799 l 4.597,2.598 c 2.804,1.602 4.604,3.801 4.604,6.801 0,3.803 -3.603,5.6 -7.201,5.6 -2.801,0 -6.199,-1.199 -7.997,-2 -3.004,-1.402 -4.602,0.4 -5.604,3.6 -0.998,3.4 0.605,4.801 3.2,6 C 112.003,107 116.196,108 120,108 c 9.8,0 17.797,-6.598 17.797,-16.998 z m -35,-2.004 V 55.799 c 0,-2.801 -2.796,-4.201 -5.395,-4.201 -2.805,0 -5.397,1.4 -5.397,4.201 V 87.6 C 92.005,93.998 90,98.2 84.802,98.2 79.8,98.2 77.4,94.2 77.4,87.6 V 55.799 c 0,-2.801 -3,-4.201 -5.599,-4.201 -2.998,0 -5.604,1.4 -5.604,4.201 v 32.998 c 0,13.203 6.6,19.203 18.606,19.203 10.795,0 17.994,-6.201 17.994,-19.002 z M 61,91.402 C 61,82.201 54.599,78.797 51.196,78.201 V 78 C 55.196,76.002 60,72.199 60,65.402 60,56.201 52.004,51.798 44.195,51.798 H 29.197 c -2.797,0 -4.396,2.199 -4.396,4.604 v 46.797 c 0,2.803 2.8,4.203 5.396,4.203 H 44.402 C 53,107.402 61,102.797 61,91.402 Z M 48.802,68 c 0,5.201 -4.4,6.998 -9.002,6.998 H 35.596 V 61 H 39.8 c 4.799,0 9.002,1.6 9.002,7 z m 1.599,22.199 c 0,5.4 -3.001,8 -9.401,8 H 36.195 V 82.6 H 41 c 4,0 9.401,1.4 9.401,7.599 z"
   id="path5"
   inkscape:connector-curvature="0"
   style="fill:#ffffff" />
	</g>
</g>
</svg>